Covid-19 Visualization
…
Code

emissions_population_GDP_cleaned <- emissions_population_GDP |> 
  janitor::clean_names() |> 
  rename_at(vars(starts_with("x")), 
                       ~str_replace(., "x\\d+_(yr)?", "")) |> 
  rename(country_region = country_name, iso_code = country_code) |> 
  select(-series_code) |> 
  mutate(across(everything(), ~if_else(. == "..", NA, .)))
print(emissions_population_GDP_cleaned)

# A tibble: 15,167 × 18
   country_region iso_code series_name `2008` `2009` `2010` `2011` `2012` `2013`
   <chr>          <chr>    <chr>       <chr>  <chr>  <chr>  <chr>  <chr>  <chr> 
 1 Afghanistan    AFG      Total gree… 21349… 24313… 28585… 32446… 30928… 30430…
 2 Afghanistan    AFG      Nitrous ox… 3880.… 4157.… 4578.… 4684.… 4723.… 4774.…
 3 Afghanistan    AFG      CO2 emissi… <NA>   <NA>   <NA>   <NA>   <NA>   <NA>  
 4 Afghanistan    AFG      CO2 emissi… 4375.… 6558.… 8576.… 11961… 10208… 9402.…
 5 Afghanistan    AFG      Population… 26427… 27385… 28189… 29249… 30466… 31541…
 6 Afghanistan    AFG      Population… 50.47… 50.49… 50.51… 50.53… 50.54… 50.55…
 7 Afghanistan    AFG      Population… 49.52… 49.50… 49.48… 49.46… 49.45… 49.44…
 8 Afghanistan    AFG      Population… 2.002… 3.561… 2.894… 3.689… 4.077… 3.466…
 9 Afghanistan    AFG      People usi… <NA>   <NA>   <NA>   <NA>   <NA>   <NA>  
10 Afghanistan    AFG      Population… 18.79… 18.33… 18.02… 17.59… 17.16… 16.98…
# ℹ 15,157 more rows
# ℹ 9 more variables: `2014` <chr>, `2015` <chr>, `2016` <chr>, `2017` <chr>,
#   `2018` <chr>, `2019` <chr>, `2020` <chr>, `2021` <chr>, `2022` <chr>

Code

# print the all different series name
distinct_series_names <- distinct(emissions_population_GDP_cleaned, series_name) |> 
  filter(!is.na(series_name)) # Filter out rows where series_name is NA
# Print the distinct series names
print(distinct_series_names) 

# A tibble: 57 × 1
   series_name                                                      
   <chr>                                                            
 1 Total greenhouse gas emissions (kt of CO2 equivalent)            
 2 Nitrous oxide emissions (thousand metric tons of CO2 equivalent) 
 3 CO2 emissions from transport (% of total fuel combustion)        
 4 CO2 emissions (kt)                                               
 5 Population, total                                                
 6 Population, male (% of total population)                         
 7 Population, female (% of total population)                       
 8 Population growth (annual %)                                     
 9 People using safely managed sanitation services (% of population)
10 Population ages 00-04, female (% of female population)           
# ℹ 47 more rows
…
recovered_global_summary <- recovered_global_cleaned |> 
  group_by(country_region) |> 
  summarize(
    lat = mean(lat, na.rm = TRUE),
    long = mean(long, na.rm = TRUE),
    across(starts_with("2020"), sum, na.rm = TRUE))
print(recovered_global_summary)

# A tibble: 201 × 348
   country_region        lat   long `2020-01-22` `2020-01-23` `2020-01-24`
   <chr>               <dbl>  <dbl>        <dbl>        <dbl>        <dbl>
 1 Afghanistan          33.9  67.7             0            0            0
 2 Albania              41.2  20.2             0            0            0
 3 Algeria              28.0   1.66            0            0            0
 4 Andorra              42.5   1.52            0            0            0
 5 Angola              -11.2  17.9             0            0            0
 6 Antarctica          -71.9  23.3             0            0            0
 7 Antigua and Barbuda  17.1 -61.8             0            0            0
 8 Argentina           -38.4 -63.6             0            0            0
 9 Armenia              40.1  45.0             0            0            0
10 Australia           -32.1 141.              0            0            0
# ℹ 191 more rows
# ℹ 342 more variables: `2020-01-25` <dbl>, `2020-01-26` <dbl>,
#   `2020-01-27` <dbl>, `2020-01-28` <dbl>, `2020-01-29` <dbl>,
#   `2020-01-30` <dbl>, `2020-01-31` <dbl>, `2020-02-01` <dbl>,
#   `2020-02-02` <dbl>, `2020-02-03` <dbl>, `2020-02-04` <dbl>,
#   `2020-02-05` <dbl>, `2020-02-06` <dbl>, `2020-02-07` <dbl>,
#   `2020-02-08` <dbl>, `2020-02-09` <dbl>, `2020-02-10` <dbl>, …
Code

deaths_global_long <- deaths_global_summary |> 
  pivot_longer(
    cols = -c(lat, long, country_region),
  names_to = "date",# The column names  in new column "date"
    values_to = "deaths" # The values in new column "date"

) |> 
  mutate(date = ymd(date)) |>
  select(lat, long, country_region, date, deaths)

print(deaths_global_long)

# A tibble: 69,345 × 5
     lat  long country_region date       deaths
   <dbl> <dbl> <chr>          <date>      <dbl>
 1  33.9  67.7 Afghanistan    2020-01-22      0
 2  33.9  67.7 Afghanistan    2020-01-23      0
 3  33.9  67.7 Afghanistan    2020-01-24      0
 4  33.9  67.7 Afghanistan    2020-01-25      0
 5  33.9  67.7 Afghanistan    2020-01-26      0
 6  33.9  67.7 Afghanistan    2020-01-27      0
 7  33.9  67.7 Afghanistan    2020-01-28      0
 8  33.9  67.7 Afghanistan    2020-01-29      0
 9  33.9  67.7 Afghanistan    2020-01-30      0
10  33.9  67.7 Afghanistan    2020-01-31      0
# ℹ 69,335 more rows
Code

confirmed_global_long <- confirmed_global_summary |> 
  pivot_longer(
    cols = -c(lat, long, country_region),
  names_to = "date",# The column names  in new column "date"
    values_to = "confirmed" # The values in new column "date"

) |> 
  mutate(date = ymd(date)) |>
  select(lat, long, country_region, date, confirmed)

print(confirmed_global_long)

# A tibble: 69,345 × 5
     lat  long country_region date       confirmed
   <dbl> <dbl> <chr>          <date>         <dbl>
 1  33.9  67.7 Afghanistan    2020-01-22         0
 2  33.9  67.7 Afghanistan    2020-01-23         0
 3  33.9  67.7 Afghanistan    2020-01-24         0
 4  33.9  67.7 Afghanistan    2020-01-25         0
 5  33.9  67.7 Afghanistan    2020-01-26         0
 6  33.9  67.7 Afghanistan    2020-01-27         0
 7  33.9  67.7 Afghanistan    2020-01-28         0
 8  33.9  67.7 Afghanistan    2020-01-29         0
 9  33.9  67.7 Afghanistan    2020-01-30         0
10  33.9  67.7 Afghanistan    2020-01-31         0
# ℹ 69,335 more rows
Code

recovered_global_long <- recovered_global_summary |> 
  pivot_longer(
    cols = -c(lat, long, country_region),
  names_to = "date",# The column names  in new column "date"
    values_to = "recovered" # The values in new column "recovered"

) |> 
  mutate(date = ymd(date)) |>
  select(lat, long, country_region, date, recovered)

print(recovered_global_long)

# A tibble: 69,345 × 5
     lat  long country_region date       recovered
   <dbl> <dbl> <chr>          <date>         <dbl>
 1  33.9  67.7 Afghanistan    2020-01-22         0
 2  33.9  67.7 Afghanistan    2020-01-23         0
 3  33.9  67.7 Afghanistan    2020-01-24         0
 4  33.9  67.7 Afghanistan    2020-01-25         0
 5  33.9  67.7 Afghanistan    2020-01-26         0
 6  33.9  67.7 Afghanistan    2020-01-27         0
 7  33.9  67.7 Afghanistan    2020-01-28         0
 8  33.9  67.7 Afghanistan    2020-01-29         0
 9  33.9  67.7 Afghanistan    2020-01-30         0
10  33.9  67.7 Afghanistan    2020-01-31         0
# ℹ 69,335 more rows
…
reshape long wide

Code

print(emissions_population_GDP_cleaned)

# A tibble: 15,167 × 18
   country_region iso_code series_name `2008` `2009` `2010` `2011` `2012` `2013`
   <chr>          <chr>    <chr>       <chr>  <chr>  <chr>  <chr>  <chr>  <chr> 
 1 Afghanistan    AFG      Total gree… 21349… 24313… 28585… 32446… 30928… 30430…
 2 Afghanistan    AFG      Nitrous ox… 3880.… 4157.… 4578.… 4684.… 4723.… 4774.…
 3 Afghanistan    AFG      CO2 emissi… <NA>   <NA>   <NA>   <NA>   <NA>   <NA>  
 4 Afghanistan    AFG      CO2 emissi… 4375.… 6558.… 8576.… 11961… 10208… 9402.…
 5 Afghanistan    AFG      Population… 26427… 27385… 28189… 29249… 30466… 31541…
 6 Afghanistan    AFG      Population… 50.47… 50.49… 50.51… 50.53… 50.54… 50.55…
 7 Afghanistan    AFG      Population… 49.52… 49.50… 49.48… 49.46… 49.45… 49.44…
 8 Afghanistan    AFG      Population… 2.002… 3.561… 2.894… 3.689… 4.077… 3.466…
 9 Afghanistan    AFG      People usi… <NA>   <NA>   <NA>   <NA>   <NA>   <NA>  
10 Afghanistan    AFG      Population… 18.79… 18.33… 18.02… 17.59… 17.16… 16.98…
# ℹ 15,157 more rows
# ℹ 9 more variables: `2014` <chr>, `2015` <chr>, `2016` <chr>, `2017` <chr>,
#   `2018` <chr>, `2019` <chr>, `2020` <chr>, `2021` <chr>, `2022` <chr>
…
emissions_population_GDP_wider <- emissions_population_GDP_cleaned |> 
  pivot_longer(cols = 4:last_col(), names_to = "year", values_to = "value") |> 
  mutate(
    year = as.integer(year),
    value = replace(as.numeric(value), value == "..", NA)

         ) |> 
  pivot_wider(names_from = "series_name", values_from = "value") |> 
  unnest(everything()) 

print(emissions_population_GDP_wider)

# A tibble: 4,065 × 61
   country_region iso_code  year Total greenhouse gas e…¹ Nitrous oxide emissi…²
   <chr>          <chr>    <int>                    <dbl>                  <dbl>
 1 Afghanistan    AFG       2008                   21349.                  3880.
 2 Afghanistan    AFG       2009                   24314.                  4157.
 3 Afghanistan    AFG       2010                   28586.                  4579.
 4 Afghanistan    AFG       2011                   32446.                  4684.
 5 Afghanistan    AFG       2012                   30929.                  4723.
 6 Afghanistan    AFG       2013                   30430.                  4775.
 7 Afghanistan    AFG       2014                   31166.                  5089.
 8 Afghanistan    AFG       2015                   31619.                  5057.
 9 Afghanistan    AFG       2016                   30865.                  5044.
10 Afghanistan    AFG       2017                   31751.                  5264.
# ℹ 4,055 more rows
# ℹ abbreviated names:
#   ¹​`Total greenhouse gas emissions (kt of CO2 equivalent)`,
#   ²​`Nitrous oxide emissions (thousand metric tons of CO2 equivalent)`
# ℹ 56 more variables:
#   `CO2 emissions from transport (% of total fuel combustion)` <dbl>,
#   `CO2 emissions (kt)` <dbl>, `Population, total` <dbl>, …
…
[1] "country_region" "iso_code"       "emissions"      "population"    
[5] "gdp"           

Code

print(emissions_population_GDP_nested)

# A tibble: 269 × 5
   country_region      iso_code emissions         population         gdp     
   <chr>               <chr>    <list>            <list>             <list>  
 1 Afghanistan         AFG      <tibble [15 × 5]> <tibble [15 × 51]> <tibble>
 2 Albania             ALB      <tibble [15 × 5]> <tibble [15 × 51]> <tibble>
 3 Algeria             DZA      <tibble [15 × 5]> <tibble [15 × 51]> <tibble>
 4 American Samoa      ASM      <tibble [15 × 5]> <tibble [15 × 51]> <tibble>
 5 Andorra             AND      <tibble [15 × 5]> <tibble [15 × 51]> <tibble>
 6 Angola              AGO      <tibble [15 × 5]> <tibble [15 × 51]> <tibble>
 7 Antigua and Barbuda ATG      <tibble [15 × 5]> <tibble [15 × 51]> <tibble>
 8 Argentina           ARG      <tibble [15 × 5]> <tibble [15 × 51]> <tibble>
 9 Armenia             ARM      <tibble [15 × 5]> <tibble [15 × 51]> <tibble>
10 Aruba               ABW      <tibble [15 × 5]> <tibble [15 × 51]> <tibble>
# ℹ 259 more rows
…
Plot 1: rose diagram: Top 30 confiremd cases country on 2020-04-28

# A tibble: 211 × 3
   country_region      confirmed deaths
   <chr>                   <dbl>  <dbl>
 1 Afghanistan              1703     60
 2 Albania                   750     30
 3 Algeria                  3649    437
 4 Andorra                   743     41
 5 Angola                     27      2
 6 Antarctica                  0      0
 7 Antigua and Barbuda        24      3
 8 Argentina                4127    207
 9 Armenia                  1867     30
10 Australia                6744     89
# ℹ 201 more rows
…
